#FIG 3.2  Produced by xfig version 3.2.5b
Landscape
Center
Inches
Letter  
100.00
Single
-2
1200 2
0 32 #d9d9d9
6 2004 1411 10327 6640
# Begin plot #1
1 3 0 1 -1 -1 9 0 20 4.000 1 0.0000 7082 1841 22 22 7082 1841 7082 1819
1 3 0 1 -1 -1 9 0 20 4.000 1 0.0000 7514 2070 22 22 7514 2070 7514 2048
1 3 0 1 -1 -1 9 0 20 4.000 1 0.0000 4185 1516 22 22 4185 1516 4185 1494
1 3 0 1 -1 -1 9 0 20 4.000 1 0.0000 4256 2334 22 22 4256 2334 4256 2312
1 3 0 1 -1 -1 9 0 20 4.000 1 0.0000 4937 1931 22 22 4937 1931 4937 1909
1 3 0 1 -1 -1 9 0 20 4.000 1 0.0000 4834 2005 22 22 4834 2005 4834 1983
1 3 0 1 -1 -1 9 0 20 4.000 1 0.0000 4488 1670 22 22 4488 1670 4488 1648
1 3 0 1 -1 -1 9 0 20 4.000 1 0.0000 4735 2403 22 22 4735 2403 4735 2381
1 3 0 1 -1 -1 9 0 20 4.000 1 0.0000 4284 2328 22 22 4284 2328 4284 2306
1 3 0 1 -1 -1 9 0 20 4.000 1 0.0000 5312 1762 22 22 5312 1762 5312 1740
1 3 0 1 -1 -1 9 0 20 4.000 1 0.0000 6164 3015 22 22 6164 3015 6164 2993
1 3 0 1 -1 -1 9 0 20 4.000 1 0.0000 6706 3386 22 22 6706 3386 6706 3364
1 3 0 1 -1 -1 9 0 20 4.000 1 0.0000 8537 2281 22 22 8537 2281 8537 2259
1 3 0 1 -1 -1 9 0 20 4.000 1 0.0000 5038 6454 22 22 5038 6454 5038 6432
1 3 0 1 -1 -1 9 0 20 4.000 1 0.0000 4553 1779 22 22 4553 1779 4553 1757
1 3 0 1 -1 -1 9 0 20 4.000 1 0.0000 4588 1956 22 22 4588 1956 4588 1934
1 3 0 1 -1 -1 9 0 20 4.000 1 0.0000 5322 6404 22 22 5322 6404 5322 6382
1 3 0 1 -1 -1 9 0 20 4.000 1 0.0000 6026 2365 22 22 6026 2365 6026 2343
1 3 0 1 -1 -1 9 0 20 4.000 1 0.0000 7010 5842 22 22 7010 5842 7010 5820
1 3 0 1 -1 -1 9 0 20 4.000 1 0.0000 6149 4140 22 22 6149 4140 6149 4118
1 3 0 1 -1 -1 9 0 20 4.000 1 0.0000 6285 4598 22 22 6285 4598 6285 4576
1 3 0 1 -1 -1 9 0 20 4.000 1 0.0000 7033 2244 22 22 7033 2244 7033 2222
1 3 0 1 -1 -1 9 0 20 4.000 1 0.0000 7203 2147 22 22 7203 2147 7203 2125
1 3 0 1 -1 -1 9 0 20 4.000 1 0.0000 8006 6130 22 22 8006 6130 8006 6108
1 3 0 1 -1 -1 9 0 20 4.000 1 0.0000 4804 6041 22 22 4804 6041 4804 6019
1 3 0 1 -1 -1 9 0 20 4.000 1 0.0000 5463 2989 22 22 5463 2989 5463 2967
1 3 0 1 -1 -1 9 0 20 4.000 1 0.0000 4434 3309 22 22 4434 3309 4434 3287
1 3 0 1 -1 -1 9 0 20 4.000 1 0.0000 5509 1543 22 22 5509 1543 5509 1521
1 3 0 1 -1 -1 9 0 20 4.000 1 0.0000 5621 4524 22 22 5621 4524 5621 4502
1 3 0 1 -1 -1 9 0 20 4.000 1 0.0000 7957 1614 22 22 7957 1614 7957 1592
1 3 0 1 -1 -1 9 0 20 4.000 1 0.0000 8221 6054 22 22 8221 6054 8221 6032
1 3 0 1 -1 -1 9 0 20 4.000 1 0.0000 8311 5574 22 22 8311 5574 8311 5552
1 3 0 1 -1 -1 9 0 20 4.000 1 0.0000 7793 6350 22 22 7793 6350 7793 6328
1 3 0 1 -1 -1 9 0 20 4.000 1 0.0000 4091 2460 22 22 4091 2460 4091 2438
1 3 0 1 -1 -1 9 0 20 4.000 1 0.0000 4487 2387 22 22 4487 2387 4487 2365
1 3 0 1 -1 -1 9 0 20 4.000 1 0.0000 4157 2688 22 22 4157 2688 4157 2666
1 3 0 1 -1 -1 9 0 20 4.000 1 0.0000 4577 2148 22 22 4577 2148 4577 2126
1 3 0 1 -1 -1 9 0 20 4.000 1 0.0000 6521 5882 22 22 6521 5882 6521 5860
1 3 0 1 -1 -1 9 0 20 4.000 1 0.0000 4883 3581 22 22 4883 3581 4883 3559
1 3 0 1 -1 -1 9 0 20 4.000 1 0.0000 4485 2137 22 22 4485 2137 4485 2115
1 3 0 1 -1 -1 9 0 20 4.000 1 0.0000 6427 5367 22 22 6427 5367 6427 5345
1 3 0 1 -1 -1 9 0 20 4.000 1 0.0000 4207 1807 22 22 4207 1807 4207 1785
1 3 0 1 -1 -1 9 0 20 4.000 1 0.0000 4180 2383 22 22 4180 2383 4180 2361
1 3 0 1 -1 -1 9 0 20 4.000 1 0.0000 5566 5534 22 22 5566 5534 5566 5512
1 3 0 1 -1 -1 9 0 20 4.000 1 0.0000 6298 6306 22 22 6298 6306 6298 6284
1 3 0 1 -1 -1 9 0 20 4.000 1 0.0000 5416 2174 22 22 5416 2174 5416 2152
1 3 0 1 -1 -1 9 0 20 4.000 1 0.0000 8244 1620 22 22 8244 1620 8244 1598
1 3 0 1 -1 -1 9 0 20 4.000 1 0.0000 3856 5721 22 22 3856 5721 3856 5699
1 3 0 1 -1 -1 9 0 20 4.000 1 0.0000 6580 2808 22 22 6580 2808 6580 2786
1 3 0 1 -1 -1 9 0 20 4.000 1 0.0000 7167 1505 22 22 7167 1505 7167 1483
1 3 0 1 -1 -1 9 0 20 4.000 1 0.0000 6809 2706 22 22 6809 2706 6809 2684
1 3 0 1 -1 -1 9 0 20 4.000 1 0.0000 5298 4195 22 22 5298 4195 5298 4173
1 3 0 1 -1 -1 9 0 20 4.000 1 0.0000 6436 2488 22 22 6436 2488 6436 2466
1 3 0 1 -1 -1 9 0 20 4.000 1 0.0000 5608 1570 22 22 5608 1570 5608 1548
1 3 0 1 -1 -1 9 0 20 4.000 1 0.0000 7826 3044 22 22 7826 3044 7826 3022
1 3 0 1 -1 -1 9 0 20 4.000 1 0.0000 6942 1418 22 22 6942 1418 6942 1396
1 3 0 1 -1 -1 9 0 20 4.000 1 0.0000 4558 1519 22 22 4558 1519 4558 1497
1 3 0 1 -1 -1 9 0 20 4.000 1 0.0000 5934 4059 22 22 5934 4059 5934 4037
1 3 0 1 -1 -1 9 0 20 4.000 1 0.0000 5631 6635 22 22 5631 6635 5631 6613
1 3 0 1 -1 -1 9 0 20 4.000 1 0.0000 6393 6536 22 22 6393 6536 6393 6514
1 3 0 1 -1 -1 9 0 20 4.000 1 0.0000 7416 3871 22 22 7416 3871 7416 3849
1 3 0 1 -1 -1 9 0 20 4.000 1 0.0000 5927 4169 22 22 5927 4169 5927 4147
1 3 0 1 -1 -1 9 0 20 4.000 1 0.0000 6754 5098 22 22 6754 5098 6754 5076
1 3 0 1 -1 -1 9 0 20 4.000 1 0.0000 7042 2493 22 22 7042 2493 7042 2471
1 3 0 1 -1 -1 9 0 20 4.000 1 0.0000 5093 3965 22 22 5093 3965 5093 3943
1 3 0 1 -1 -1 9 0 20 4.000 1 0.0000 4505 5048 22 22 4505 5048 4505 5026
1 3 0 1 -1 -1 9 0 20 4.000 1 0.0000 4650 2483 22 22 4650 2483 4650 2461
1 3 0 1 -1 -1 9 0 20 4.000 1 0.0000 6795 5023 22 22 6795 5023 6795 5001
1 3 0 1 -1 -1 9 0 20 4.000 1 0.0000 5922 2452 22 22 5922 2452 5922 2430
1 3 0 1 -1 -1 9 0 20 4.000 1 0.0000 7362 6387 22 22 7362 6387 7362 6365
1 3 0 1 -1 -1 9 0 20 4.000 1 0.0000 4964 2201 22 22 4964 2201 4964 2179
1 3 0 1 -1 -1 9 0 20 4.000 1 0.0000 8076 4382 22 22 8076 4382 8076 4360
1 3 0 1 -1 -1 9 0 20 4.000 1 0.0000 7526 1768 22 22 7526 1768 7526 1746
1 3 0 1 -1 -1 9 0 20 4.000 1 0.0000 4026 5374 22 22 4026 5374 4026 5352
1 3 0 1 -1 -1 9 0 20 4.000 1 0.0000 5616 5769 22 22 5616 5769 5616 5747
1 3 0 1 -1 -1 9 0 20 4.000 1 0.0000 5484 2694 22 22 5484 2694 5484 2672
1 3 0 1 -1 -1 9 0 20 4.000 1 0.0000 8448 1512 22 22 8448 1512 8448 1490
1 3 0 1 -1 -1 9 0 20 4.000 1 0.0000 6059 2291 22 22 6059 2291 6059 2269
1 3 0 1 -1 -1 9 0 20 4.000 1 0.0000 6364 2306 22 22 6364 2306 6364 2284
1 3 0 1 -1 -1 9 0 20 4.000 1 0.0000 5607 4929 22 22 5607 4929 5607 4907
1 3 0 1 -1 -1 9 0 20 4.000 1 0.0000 8232 5110 22 22 8232 5110 8232 5088
1 3 0 1 -1 -1 9 0 20 4.000 1 0.0000 4952 1961 22 22 4952 1961 4952 1939
1 3 0 1 -1 -1 9 0 20 4.000 1 0.0000 4777 2288 22 22 4777 2288 4777 2266
1 3 0 1 -1 -1 9 0 20 4.000 1 0.0000 4610 3734 22 22 4610 3734 4610 3712
1 3 0 1 -1 -1 9 0 20 4.000 1 0.0000 4153 1833 22 22 4153 1833 4153 1811
1 3 0 1 -1 -1 9 0 20 4.000 1 0.0000 4973 1951 22 22 4973 1951 4973 1929
1 3 0 1 -1 -1 9 0 20 4.000 1 0.0000 5633 4549 22 22 5633 4549 5633 4527
1 3 0 1 -1 -1 9 0 20 4.000 1 0.0000 4275 4410 22 22 4275 4410 4275 4388
1 3 0 1 -1 -1 9 0 20 4.000 1 0.0000 5893 2915 22 22 5893 2915 5893 2893
1 3 0 1 -1 -1 9 0 20 4.000 1 0.0000 8010 2135 22 22 8010 2135 8010 2113
1 3 0 1 -1 -1 9 0 20 4.000 1 0.0000 7430 6610 22 22 7430 6610 7430 6588
1 3 0 1 -1 -1 9 0 20 4.000 1 0.0000 7646 2101 22 22 7646 2101 7646 2079
1 3 0 1 -1 -1 9 0 20 4.000 1 0.0000 7422 4481 22 22 7422 4481 7422 4459
1 3 0 1 -1 -1 9 0 20 4.000 1 0.0000 6503 5918 22 22 6503 5918 6503 5896
1 3 0 1 -1 -1 9 0 20 4.000 1 0.0000 5517 3328 22 22 5517 3328 5517 3306
1 3 0 1 -1 -1 9 0 20 4.000 1 0.0000 8493 5929 22 22 8493 5929 8493 5907
1 3 0 1 -1 -1 9 0 20 4.000 1 0.0000 7380 2183 22 22 7380 2183 7380 2161
1 3 0 1 -1 -1 9 0 20 4.000 1 0.0000 4919 2721 22 22 4919 2721 4919 2699
1 3 0 1 -1 -1 9 0 20 4.000 1 0.0000 5272 5355 22 22 5272 5355 5272 5333
1 3 0 1 -1 -1 9 0 20 4.000 1 0.0000 4378 2884 22 22 4378 2884 4378 2862
1 3 0 1 -1 -1 9 0 20 4.000 1 0.0000 3897 6149 22 22 3897 6149 3897 6127
1 3 0 1 -1 -1 9 0 20 4.000 1 0.0000 4409 3519 22 22 4409 3519 4409 3497
1 3 0 1 -1 -1 9 0 20 4.000 1 0.0000 4019 3677 22 22 4019 3677 4019 3655
1 3 0 1 -1 -1 9 0 20 4.000 1 0.0000 5119 4587 22 22 5119 4587 5119 4565
1 3 0 1 -1 -1 9 0 20 4.000 1 0.0000 6077 3808 22 22 6077 3808 6077 3786
1 3 0 1 -1 -1 9 0 20 4.000 1 0.0000 4048 5409 22 22 4048 5409 4048 5387
1 3 0 1 -1 -1 9 0 20 4.000 1 0.0000 3876 3821 22 22 3876 3821 3876 3799
1 3 0 1 -1 -1 9 0 20 4.000 1 0.0000 5501 6493 22 22 5501 6493 5501 6471
1 3 0 1 -1 -1 9 0 20 4.000 1 0.0000 7703 2177 22 22 7703 2177 7703 2155
1 3 0 1 -1 -1 9 0 20 4.000 1 0.0000 6707 3753 22 22 6707 3753 6707 3731
1 3 0 1 -1 -1 9 0 20 4.000 1 0.0000 7706 5287 22 22 7706 5287 7706 5265
1 3 0 1 -1 -1 9 0 20 4.000 1 0.0000 6143 4171 22 22 6143 4171 6143 4149
1 3 0 1 -1 -1 9 0 20 4.000 1 0.0000 4903 6496 22 22 4903 6496 4903 6474
1 3 0 1 -1 -1 9 0 20 4.000 1 0.0000 4576 3997 22 22 4576 3997 4576 3975
1 3 0 1 -1 -1 9 0 20 4.000 1 0.0000 5676 2797 22 22 5676 2797 5676 2775
1 3 0 1 -1 -1 9 0 20 4.000 1 0.0000 6760 5200 22 22 6760 5200 6760 5178
1 3 0 1 -1 -1 9 0 20 4.000 1 0.0000 8248 2066 22 22 8248 2066 8248 2044
1 3 0 1 -1 -1 9 0 20 4.000 1 0.0000 7797 4198 22 22 7797 4198 7797 4176
1 3 0 1 -1 -1 9 0 20 4.000 1 0.0000 6853 4767 22 22 6853 4767 6853 4745
1 3 0 1 -1 -1 9 0 20 4.000 1 0.0000 8529 1872 22 22 8529 1872 8529 1850
1 3 0 1 -1 -1 9 0 20 4.000 1 0.0000 8498 4487 22 22 8498 4487 8498 4465
1 3 0 1 -1 -1 9 0 20 4.000 1 0.0000 7208 3963 22 22 7208 3963 7208 3941
1 3 0 1 -1 -1 9 0 20 4.000 1 0.0000 7882 4884 22 22 7882 4884 7882 4862
1 3 0 1 -1 -1 9 0 20 4.000 1 0.0000 5704 2281 22 22 5704 2281 5704 2259
1 3 0 1 -1 -1 9 0 20 4.000 1 0.0000 6560 5813 22 22 6560 5813 6560 5791
1 3 0 1 -1 -1 9 0 20 4.000 1 0.0000 3931 1702 22 22 3931 1702 3931 1680
1 3 0 1 -1 -1 9 0 20 4.000 1 0.0000 4516 2595 22 22 4516 2595 4516 2573
1 3 0 1 -1 -1 9 0 20 4.000 1 0.0000 4087 5201 22 22 4087 5201 4087 5179
1 3 0 1 -1 -1 9 0 20 4.000 1 0.0000 5218 4699 22 22 5218 4699 5218 4677
1 3 0 1 -1 -1 9 0 20 4.000 1 0.0000 3985 2226 22 22 3985 2226 3985 2204
1 3 0 1 -1 -1 9 0 20 4.000 1 0.0000 4894 4829 22 22 4894 4829 4894 4807
1 3 0 1 -1 -1 9 0 20 4.000 1 0.0000 5082 5050 22 22 5082 5050 5082 5028
1 3 0 1 -1 -1 9 0 20 4.000 1 0.0000 6606 6041 22 22 6606 6041 6606 6019
1 3 0 1 -1 -1 9 0 20 4.000 1 0.0000 6470 4221 22 22 6470 4221 6470 4199
1 3 0 1 -1 -1 9 0 20 4.000 1 0.0000 7120 1603 22 22 7120 1603 7120 1581
1 3 0 1 -1 -1 9 0 20 4.000 1 0.0000 7194 2271 22 22 7194 2271 7194 2249
1 3 0 1 -1 -1 9 0 20 4.000 1 0.0000 4978 5767 22 22 4978 5767 4978 5745
1 3 0 1 -1 -1 9 0 20 4.000 1 0.0000 5475 3216 22 22 5475 3216 5475 3194
1 3 0 1 -1 -1 9 0 20 4.000 1 0.0000 5608 1514 22 22 5608 1514 5608 1492
1 3 0 1 -1 -1 9 0 20 4.000 1 0.0000 8013 4844 22 22 8013 4844 8013 4822
1 3 0 1 -1 -1 9 0 20 4.000 1 0.0000 6963 2232 22 22 6963 2232 6963 2210
1 3 0 1 -1 -1 9 0 20 4.000 1 0.0000 7435 3672 22 22 7435 3672 7435 3650
1 3 0 1 -1 -1 9 0 20 4.000 1 0.0000 4902 2623 22 22 4902 2623 4902 2601
1 3 0 1 -1 -1 9 0 20 4.000 1 0.0000 5702 5726 22 22 5702 5726 5702 5704
1 3 0 1 -1 -1 9 0 20 4.000 1 0.0000 5972 4976 22 22 5972 4976 5972 4954
1 3 0 1 -1 -1 9 0 20 4.000 1 0.0000 4326 4011 22 22 4326 4011 4326 3989
1 3 0 1 -1 -1 9 0 20 4.000 1 0.0000 6021 6560 22 22 6021 6560 6021 6538
1 3 0 1 -1 -1 9 0 20 4.000 1 0.0000 7084 1681 22 22 7084 1681 7084 1659
1 3 0 1 -1 -1 9 0 20 4.000 1 0.0000 7013 2342 22 22 7013 2342 7013 2320
1 3 0 1 -1 -1 9 0 20 4.000 1 0.0000 6948 2152 22 22 6948 2152 6948 2130
1 3 0 1 -1 -1 9 0 20 4.000 1 0.0000 7110 1693 22 22 7110 1693 7110 1671
1 3 0 1 -1 -1 9 0 20 4.000 1 0.0000 6870 2137 22 22 6870 2137 6870 2115
1 3 0 1 -1 -1 9 0 20 4.000 1 0.0000 6648 1728 22 22 6648 1728 6648 1706
1 3 0 1 -1 -1 9 0 20 4.000 1 0.0000 6860 2096 22 22 6860 2096 6860 2074
1 3 0 1 -1 -1 9 0 20 4.000 1 0.0000 6936 1746 22 22 6936 1746 6936 1724
1 3 0 1 -1 -1 9 0 20 4.000 1 0.0000 6748 1562 22 22 6748 1562 6748 1540
1 3 0 1 -1 -1 9 0 20 4.000 1 0.0000 7098 2098 22 22 7098 2098 7098 2076
1 3 0 1 -1 -1 9 0 20 4.000 1 0.0000 8644 2806 22 22 8644 2806 8644 2784
1 3 0 1 -1 -1 9 0 20 4.000 1 0.0000 3914 2040 22 22 3914 2040 3914 2018
1 3 0 1 -1 -1 9 0 20 4.000 1 0.0000 3902 2431 22 22 3902 2431 3902 2409
1 3 0 1 -1 -1 9 0 20 4.000 1 0.0000 4707 1639 22 22 4707 1639 4707 1617
1 3 0 1 -1 -1 9 0 20 4.000 1 0.0000 4562 1978 22 22 4562 1978 4562 1956
1 3 0 1 -1 -1 9 0 20 4.000 1 0.0000 4710 2004 22 22 4710 2004 4710 1982
1 3 0 1 -1 -1 9 0 20 4.000 1 0.0000 4687 2428 22 22 4687 2428 4687 2406
1 3 0 1 -1 -1 9 0 20 4.000 1 0.0000 4614 2414 22 22 4614 2414 4614 2392
1 3 0 1 -1 -1 9 0 20 4.000 1 0.0000 5325 2255 22 22 5325 2255 5325 2233
1 3 0 1 -1 -1 9 0 20 4.000 1 0.0000 5598 3178 22 22 5598 3178 5598 3156
1 3 0 1 -1 -1 9 0 20 4.000 1 0.0000 6430 2598 22 22 6430 2598 6430 2576
1 3 0 1 -1 -1 9 0 20 4.000 1 0.0000 6381 2994 22 22 6381 2994 6381 2972
1 3 0 1 -1 -1 9 0 20 4.000 1 0.0000 6500 2918 22 22 6500 2918 6500 2896
1 3 0 1 -1 -1 9 0 20 4.000 1 0.0000 6470 2956 22 22 6470 2956 6470 2934
1 3 0 1 -1 -1 9 0 20 4.000 1 0.0000 6507 2893 22 22 6507 2893 6507 2871
1 3 0 1 -1 -1 9 0 20 4.000 1 0.0000 6828 3079 22 22 6828 3079 6828 3057
1 3 0 1 -1 -1 9 0 20 4.000 1 0.0000 6209 2694 22 22 6209 2694 6209 2672
1 3 0 1 -1 -1 9 0 20 4.000 1 0.0000 4125 2911 22 22 4125 2911 4125 2889
1 3 0 1 -1 -1 9 0 20 4.000 1 0.0000 4437 4566 22 22 4437 4566 4437 4544
1 3 0 1 -1 -1 9 0 20 4.000 1 0.0000 6218 2889 22 22 6218 2889 6218 2867
1 3 0 1 -1 -1 9 0 20 4.000 1 0.0000 4793 4791 22 22 4793 4791 4793 4769
1 3 0 1 -1 -1 9 0 20 4.000 1 0.0000 6266 2355 22 22 6266 2355 6266 2333
1 3 0 1 -1 -1 9 0 20 4.000 1 0.0000 5287 6582 22 22 5287 6582 5287 6560
1 3 0 1 -1 -1 9 0 20 4.000 1 0.0000 5375 2742 22 22 5375 2742 5375 2720
1 3 0 1 -1 -1 9 0 20 4.000 1 0.0000 6243 5884 22 22 6243 5884 6243 5862
1 3 0 1 -1 -1 9 0 20 4.000 1 0.0000 5956 1621 22 22 5956 1621 5956 1599
1 3 0 1 -1 -1 9 0 20 4.000 1 0.0000 6357 1894 22 22 6357 1894 6357 1872
1 3 0 1 -1 -1 9 0 20 4.000 1 0.0000 5358 3557 22 22 5358 3557 5358 3535
1 3 0 1 -1 -1 9 0 20 4.000 1 0.0000 6247 5921 22 22 6247 5921 6247 5899
1 3 0 1 -1 -1 9 0 20 4.000 1 0.0000 7181 2080 22 22 7181 2080 7181 2058
1 3 0 1 -1 -1 9 0 20 4.000 1 0.0000 7020 2094 22 22 7020 2094 7020 2072
1 3 0 1 -1 -1 9 0 20 4.000 1 0.0000 8150 1651 22 22 8150 1651 8150 1629
1 3 0 1 -1 -1 9 0 20 4.000 1 0.0000 8119 6412 22 22 8119 6412 8119 6390
1 3 0 1 -1 -1 9 0 20 4.000 1 0.0000 8067 1569 22 22 8067 1569 8067 1547
1 3 0 1 -1 -1 9 0 20 4.000 1 0.0000 7770 6521 22 22 7770 6521 7770 6499
1 3 0 1 -1 -1 9 0 20 4.000 1 0.0000 7959 2020 22 22 7959 2020 7959 1998
1 3 0 1 -1 -1 9 0 20 4.000 1 0.0000 6336 4324 22 22 6336 4324 6336 4302
1 3 0 1 -1 -1 9 0 20 4.000 1 0.0000 6214 4511 22 22 6214 4511 6214 4489
1 3 0 1 -1 -1 9 0 20 4.000 1 0.0000 6529 4590 22 22 6529 4590 6529 4568
1 3 0 1 -1 -1 9 0 20 4.000 1 0.0000 6496 6607 22 22 6496 6607 6496 6585
1 3 0 1 -1 -1 9 0 20 4.000 1 0.0000 6600 2954 22 22 6600 2954 6600 2932
1 3 0 1 -1 -1 9 0 20 4.000 1 0.0000 7181 1964 22 22 7181 1964 7181 1942
1 3 0 1 -1 -1 9 0 20 4.000 1 0.0000 6417 2821 22 22 6417 2821 6417 2799
1 3 0 1 -1 -1 9 0 20 4.000 1 0.0000 4811 3920 22 22 4811 3920 4811 3898
1 3 0 1 -1 -1 9 0 20 4.000 1 0.0000 5295 5013 22 22 5295 5013 5295 4991
1 3 0 1 -1 -1 9 0 20 4.000 1 0.0000 4802 5163 22 22 4802 5163 4802 5141
1 3 0 1 -1 -1 9 0 20 4.000 1 0.0000 4785 3495 22 22 4785 3495 4785 3473
1 3 0 1 -1 -1 9 0 20 4.000 1 0.0000 8481 3365 22 22 8481 3365 8481 3343
1 3 0 1 -1 -1 9 0 20 4.000 1 0.0000 7502 5591 22 22 7502 5591 7502 5569
1 3 0 1 -1 -1 9 0 20 4.000 1 0.0000 7615 6623 22 22 7615 6623 7615 6601
1 3 0 1 -1 -1 9 0 20 4.000 1 0.0000 6735 3257 22 22 6735 3257 6735 3235
1 3 0 1 -1 -1 9 0 20 4.000 1 0.0000 8590 1853 22 22 8590 1853 8590 1831
1 3 0 1 -1 -1 9 0 20 4.000 1 0.0000 8063 5069 22 22 8063 5069 8063 5047
1 3 0 1 -1 -1 9 0 20 4.000 1 0.0000 6708 5145 22 22 6708 5145 6708 5123
1 3 0 1 -1 -1 9 0 20 4.000 1 0.0000 6813 1499 22 22 6813 1499 6813 1477
1 3 0 1 -1 -1 9 0 20 4.000 1 0.0000 5904 2802 22 22 5904 2802 5904 2780
1 3 0 1 -1 -1 9 0 20 4.000 1 0.0000 3733 4282 22 22 3733 4282 3733 4260
1 3 0 1 -1 -1 9 0 20 4.000 1 0.0000 3923 2389 22 22 3923 2389 3923 2367
1 3 0 1 -1 -1 9 0 20 4.000 1 0.0000 3828 3026 22 22 3828 3026 3828 3004
1 3 0 1 -1 -1 9 0 20 4.000 1 0.0000 4035 1938 22 22 4035 1938 4035 1916
1 3 0 1 -1 -1 9 0 20 4.000 1 0.0000 4009 4038 22 22 4009 4038 4009 4016
1 3 0 1 -1 -1 9 0 20 4.000 1 0.0000 4361 5252 22 22 4361 5252 4361 5230
1 3 0 1 -1 -1 9 0 20 4.000 1 0.0000 4712 2452 22 22 4712 2452 4712 2430
1 3 0 1 -1 -1 9 0 20 4.000 1 0.0000 4543 1595 22 22 4543 1595 4543 1573
1 3 0 1 -1 -1 9 0 20 4.000 1 0.0000 4805 6334 22 22 4805 6334 4805 6312
1 3 0 1 -1 -1 9 0 20 4.000 1 0.0000 4893 1790 22 22 4893 1790 4893 1768
1 3 0 1 -1 -1 9 0 20 4.000 1 0.0000 5414 5705 22 22 5414 5705 5414 5683
1 3 0 1 -1 -1 9 0 20 4.000 1 0.0000 5750 5373 22 22 5750 5373 5750 5351
1 3 0 1 -1 -1 9 0 20 4.000 1 0.0000 5373 5841 22 22 5373 5841 5373 5819
1 3 0 1 -1 -1 9 0 20 4.000 1 0.0000 6978 5536 22 22 6978 5536 6978 5514
1 3 0 1 -1 -1 9 0 20 4.000 1 0.0000 5749 3831 22 22 5749 3831 5749 3809
1 3 0 1 -1 -1 9 0 20 4.000 1 0.0000 7912 5356 22 22 7912 5356 7912 5334
1 3 0 1 -1 -1 9 0 20 4.000 1 0.0000 7108 2884 22 22 7108 2884 7108 2862
1 3 0 1 -1 -1 9 0 20 4.000 1 0.0000 7914 2635 22 22 7914 2635 7914 2613
1 3 0 1 -1 -1 9 0 20 4.000 1 0.0000 7541 2676 22 22 7541 2676 7541 2654
1 3 0 1 -1 -1 9 0 20 4.000 1 0.0000 4939 4790 22 22 4939 4790 4939 4768
1 3 0 1 -1 -1 9 0 20 4.000 1 0.0000 7791 5128 22 22 7791 5128 7791 5106
1 3 0 1 -1 -1 9 0 20 4.000 1 0.0000 7608 4474 22 22 7608 4474 7608 4452
1 3 0 1 -1 -1 9 0 20 4.000 1 0.0000 6972 3645 22 22 6972 3645 6972 3623
1 3 0 1 -1 -1 9 0 20 4.000 1 0.0000 3886 3159 22 22 3886 3159 3886 3137
1 3 0 1 -1 -1 9 0 20 4.000 1 0.0000 4319 6101 22 22 4319 6101 4319 6079
1 3 0 1 -1 -1 9 0 20 4.000 1 0.0000 3946 1719 22 22 3946 1719 3946 1697
1 3 0 1 -1 -1 9 0 20 4.000 1 0.0000 6354 2911 22 22 6354 2911 6354 2889
1 3 0 1 -1 -1 9 0 20 4.000 1 0.0000 6527 2864 22 22 6527 2864 6527 2842
1 3 0 1 -1 -1 9 0 20 4.000 1 0.0000 7897 4052 22 22 7897 4052 7897 4030
1 3 0 1 -1 -1 9 0 20 4.000 1 0.0000 8035 5561 22 22 8035 5561 8035 5539
1 3 0 1 -1 -1 9 0 20 4.000 1 0.0000 7294 1658 22 22 7294 1658 7294 1636
1 3 0 1 -1 -1 9 0 20 4.000 1 0.0000 5761 1652 22 22 5761 1652 5761 1630
1 3 0 1 -1 -1 9 0 20 4.000 1 0.0000 6861 2388 22 22 6861 2388 6861 2366
1 3 0 1 -1 -1 9 0 20 4.000 1 0.0000 6000 3080 22 22 6000 3080 6000 3058
1 3 0 1 -1 -1 9 0 20 4.000 1 0.0000 7458 1902 22 22 7458 1902 7458 1880
1 3 0 1 -1 -1 9 0 20 4.000 1 0.0000 7814 1797 22 22 7814 1797 7814 1775
1 3 0 1 -1 -1 9 0 20 4.000 1 0.0000 7503 1775 22 22 7503 1775 7503 1753
1 3 0 1 -1 -1 9 0 20 4.000 1 0.0000 7447 6617 22 22 7447 6617 7447 6595
1 3 0 1 -1 -1 9 0 20 4.000 1 0.0000 4036 2415 22 22 4036 2415 4036 2393
1 3 0 1 -1 -1 9 0 20 4.000 1 0.0000 4028 6544 22 22 4028 6544 4028 6522
1 3 0 1 -1 -1 9 0 20 4.000 1 0.0000 4677 3474 22 22 4677 3474 4677 3452
1 3 0 1 -1 -1 9 0 20 4.000 1 0.0000 6802 3711 22 22 6802 3711 6802 3689
1 3 0 1 -1 -1 9 0 20 4.000 1 0.0000 7348 3357 22 22 7348 3357 7348 3335
1 3 0 1 -1 -1 9 0 20 4.000 1 0.0000 5544 2104 22 22 5544 2104 5544 2082
1 3 0 1 -1 -1 9 0 20 4.000 1 0.0000 7632 6324 22 22 7632 6324 7632 6302
1 3 0 1 -1 -1 9 0 20 4.000 1 0.0000 7186 5557 22 22 7186 5557 7186 5535
1 3 0 1 -1 -1 9 0 20 4.000 1 0.0000 6078 6448 22 22 6078 6448 6078 6426
1 3 0 1 -1 -1 9 0 20 4.000 1 0.0000 6868 5523 22 22 6868 5523 6868 5501
1 3 0 1 -1 -1 9 0 20 4.000 1 0.0000 6761 5638 22 22 6761 5638 6761 5616
1 3 0 1 -1 -1 9 0 20 4.000 1 0.0000 5264 1728 22 22 5264 1728 5264 1706
1 3 0 1 -1 -1 9 0 20 4.000 1 0.0000 4380 4885 22 22 4380 4885 4380 4863
1 3 0 1 -1 -1 9 0 20 4.000 1 0.0000 7947 2144 22 22 7947 2144 7947 2122
1 3 0 1 -1 -1 9 0 20 4.000 1 0.0000 7268 4520 22 22 7268 4520 7268 4498
1 3 0 1 -1 -1 9 0 20 4.000 1 0.0000 8117 4532 22 22 8117 4532 8117 4510
1 3 0 1 -1 -1 9 0 20 4.000 1 0.0000 8073 2682 22 22 8073 2682 8073 2660
1 3 0 1 -1 -1 9 0 20 4.000 1 0.0000 7880 4015 22 22 7880 4015 7880 3993
1 3 0 1 -1 -1 9 0 20 4.000 1 0.0000 5062 2359 22 22 5062 2359 5062 2337
1 3 0 1 -1 -1 9 0 20 4.000 1 0.0000 5554 4391 22 22 5554 4391 5554 4369
1 3 0 1 -1 -1 9 0 20 4.000 1 0.0000 5188 2468 22 22 5188 2468 5188 2446
1 3 0 1 -1 -1 9 0 20 4.000 1 0.0000 3916 3447 22 22 3916 3447 3916 3425
1 3 0 1 -1 -1 9 0 20 4.000 1 0.0000 4478 1810 22 22 4478 1810 4478 1788
1 3 0 1 -1 -1 9 0 20 4.000 1 0.0000 4027 4817 22 22 4027 4817 4027 4795
1 3 0 1 -1 -1 9 0 20 4.000 1 0.0000 4328 2937 22 22 4328 2937 4328 2915
1 3 0 1 -1 -1 9 0 20 4.000 1 0.0000 8244 4750 22 22 8244 4750 8244 4728
1 3 0 1 -1 -1 9 0 20 4.000 1 0.0000 7673 3061 22 22 7673 3061 7673 3039
1 3 0 1 -1 -1 9 0 20 4.000 1 0.0000 6972 1806 22 22 6972 1806 6972 1784
1 3 0 1 -1 -1 9 0 20 4.000 1 0.0000 6104 5000 22 22 6104 5000 6104 4978
1 3 0 1 -1 -1 9 0 20 4.000 1 0.0000 6440 2815 22 22 6440 2815 6440 2793
1 3 0 1 -1 -1 9 0 20 4.000 1 0.0000 7524 2162 22 22 7524 2162 7524 2140
1 3 0 1 -1 -1 9 0 20 4.000 1 0.0000 8353 3114 22 22 8353 3114 8353 3092
1 3 0 1 -1 -1 9 0 20 4.000 1 0.0000 5131 4650 22 22 5131 4650 5131 4628
1 3 0 1 -1 -1 9 0 20 4.000 1 0.0000 4890 5748 22 22 4890 5748 4890 5726
1 3 0 1 -1 -1 9 0 20 4.000 1 0.0000 7297 3408 22 22 7297 3408 7297 3386
1 3 0 1 -1 -1 9 0 20 4.000 1 0.0000 8111 5543 22 22 8111 5543 8111 5521
1 3 0 1 -1 -1 9 0 20 4.000 1 0.0000 7423 2055 22 22 7423 2055 7423 2033
1 3 0 1 -1 -1 9 0 20 4.000 1 0.0000 8450 5701 22 22 8450 5701 8450 5679
1 3 0 1 -1 -1 9 0 20 4.000 1 0.0000 8080 5944 22 22 8080 5944 8080 5922
1 3 0 1 -1 -1 9 0 20 4.000 1 0.0000 7445 3738 22 22 7445 3738 7445 3716
1 3 0 1 -1 -1 9 0 20 4.000 1 0.0000 7687 1850 22 22 7687 1850 7687 1828
1 3 0 1 -1 -1 9 0 20 4.000 1 0.0000 6815 4361 22 22 6815 4361 6815 4339
1 3 0 1 -1 -1 9 0 20 4.000 1 0.0000 4958 5050 22 22 4958 5050 4958 5028
1 3 0 1 -1 -1 9 0 20 4.000 1 0.0000 4041 5232 22 22 4041 5232 4041 5210
1 3 0 1 -1 -1 9 0 20 4.000 1 0.0000 4076 3535 22 22 4076 3535 4076 3513
1 3 0 1 -1 -1 9 0 20 4.000 1 0.0000 4104 2046 22 22 4104 2046 4104 2024
1 3 0 1 -1 -1 9 0 20 4.000 1 0.0000 8224 3999 22 22 8224 3999 8224 3977
1 3 0 1 -1 -1 9 0 20 4.000 1 0.0000 5444 4621 22 22 5444 4621 5444 4599
1 3 0 1 -1 -1 9 0 20 4.000 1 0.0000 7291 5018 22 22 7291 5018 7291 4996
1 3 0 1 -1 -1 9 0 20 4.000 1 0.0000 5859 1477 22 22 5859 1477 5859 1455
1 3 0 1 -1 -1 9 0 20 4.000 1 0.0000 6728 2028 22 22 6728 2028 6728 2006
1 3 0 1 -1 -1 9 0 20 4.000 1 0.0000 7429 5715 22 22 7429 5715 7429 5693
1 3 0 1 -1 -1 9 0 20 4.000 1 0.0000 7791 4116 22 22 7791 4116 7791 4094
1 3 0 1 -1 -1 9 0 20 4.000 1 0.0000 7143 1775 22 22 7143 1775 7143 1753
1 3 0 1 -1 -1 9 0 20 4.000 1 0.0000 5647 5407 22 22 5647 5407 5647 5385
1 3 0 1 -1 -1 9 0 20 4.000 1 0.0000 7770 3193 22 22 7770 3193 7770 3171
1 3 0 1 -1 -1 9 0 20 4.000 1 0.0000 7442 5475 22 22 7442 5475 7442 5453
1 3 0 1 -1 -1 9 0 20 4.000 1 0.0000 8481 6176 22 22 8481 6176 8481 6154
1 3 0 1 -1 -1 9 0 20 4.000 1 0.0000 7482 6432 22 22 7482 6432 7482 6410
1 3 0 1 -1 -1 9 0 20 4.000 1 0.0000 4679 5337 22 22 4679 5337 4679 5315
1 3 0 1 -1 -1 9 0 20 4.000 1 0.0000 4596 5640 22 22 4596 5640 4596 5618
1 3 0 1 -1 -1 9 0 20 4.000 1 0.0000 6089 4762 22 22 6089 4762 6089 4740
1 3 0 1 -1 -1 9 0 20 4.000 1 0.0000 4016 2571 22 22 4016 2571 4016 2549
1 3 0 1 -1 -1 9 0 20 4.000 1 0.0000 4035 3883 22 22 4035 3883 4035 3861
1 3 0 1 -1 -1 9 0 20 4.000 1 0.0000 4114 6208 22 22 4114 6208 4114 6186
1 3 0 1 -1 -1 9 0 20 4.000 1 0.0000 3819 2526 22 22 3819 2526 3819 2504
1 3 0 1 -1 -1 9 0 20 4.000 1 0.0000 4603 5500 22 22 4603 5500 4603 5478
1 3 0 1 -1 -1 9 0 20 4.000 1 0.0000 6922 5897 22 22 6922 5897 6922 5875
1 3 0 1 -1 -1 9 0 20 4.000 1 0.0000 4861 2912 22 22 4861 2912 4861 2890
1 3 0 1 -1 -1 9 0 20 4.000 1 0.0000 3684 2946 22 22 3684 2946 3684 2924
1 3 0 1 -1 -1 9 0 20 4.000 1 0.0000 3847 4715 22 22 3847 4715 3847 4693
1 3 0 1 -1 -1 9 0 20 4.000 1 0.0000 4238 1943 22 22 4238 1943 4238 1921
1 3 0 1 -1 -1 9 0 20 4.000 1 0.0000 3857 3368 22 22 3857 3368 3857 3346
1 3 0 1 -1 -1 9 0 20 4.000 1 0.0000 3895 1764 22 22 3895 1764 3895 1742
1 3 0 1 -1 -1 9 0 20 4.000 1 0.0000 5681 3583 22 22 5681 3583 5681 3561
1 3 0 1 -1 -1 9 0 20 4.000 1 0.0000 5132 3490 22 22 5132 3490 5132 3468
1 3 0 1 -1 -1 9 0 20 4.000 1 0.0000 6567 3436 22 22 6567 3436 6567 3414
1 3 0 1 -1 -1 9 0 20 4.000 1 0.0000 6608 1519 22 22 6608 1519 6608 1497
1 3 0 1 -1 -1 9 0 20 4.000 1 0.0000 5131 4341 22 22 5131 4341 5131 4319
1 3 0 1 -1 -1 9 0 20 4.000 1 0.0000 5817 2786 22 22 5817 2786 5817 2764
1 3 0 1 -1 -1 9 0 20 4.000 1 0.0000 5926 5303 22 22 5926 5303 5926 5281
1 3 0 1 -1 -1 9 0 20 4.000 1 0.0000 6289 5449 22 22 6289 5449 6289 5427
1 3 0 1 -1 -1 9 0 20 4.000 1 0.0000 5952 6607 22 22 5952 6607 5952 6585
1 3 0 1 -1 -1 9 0 20 4.000 1 0.0000 7866 3082 22 22 7866 3082 7866 3060
1 3 0 1 -1 -1 9 0 20 4.000 1 0.0000 7557 5311 22 22 7557 5311 7557 5289
1 3 0 1 -1 -1 9 0 20 4.000 1 0.0000 6771 3886 22 22 6771 3886 6771 3864
1 3 0 1 -1 -1 9 0 20 4.000 1 0.0000 6735 2082 22 22 6735 2082 6735 2060
1 3 0 1 -1 -1 9 0 20 4.000 1 0.0000 6263 1680 22 22 6263 1680 6263 1658
1 3 0 1 -1 -1 9 0 20 4.000 1 0.0000 6549 2428 22 22 6549 2428 6549 2406
1 3 0 1 -1 -1 9 0 20 4.000 1 0.0000 6921 6457 22 22 6921 6457 6921 6435
1 3 0 1 -1 -1 9 0 20 4.000 1 0.0000 6172 4473 22 22 6172 4473 6172 4451
1 3 0 1 -1 -1 9 0 20 4.000 1 0.0000 7111 6121 22 22 7111 6121 7111 6099
1 3 0 1 -1 -1 9 0 20 4.000 1 0.0000 8016 2122 22 22 8016 2122 8016 2100
1 3 0 1 -1 -1 9 0 20 4.000 1 0.0000 8210 5510 22 22 8210 5510 8210 5488
1 3 0 1 -1 -1 9 0 20 4.000 1 0.0000 7087 1654 22 22 7087 1654 7087 1632
1 3 0 1 -1 -1 9 0 20 4.000 1 0.0000 5818 2349 22 22 5818 2349 5818 2327
1 3 0 1 -1 -1 9 0 20 4.000 1 0.0000 5163 1508 22 22 5163 1508 5163 1486
1 3 0 1 -1 -1 9 0 20 4.000 1 0.0000 4805 1840 22 22 4805 1840 4805 1818
1 3 0 1 -1 -1 9 0 20 4.000 1 0.0000 5068 4150 22 22 5068 4150 5068 4128
1 3 0 1 -1 -1 9 0 20 4.000 1 0.0000 5781 4313 22 22 5781 4313 5781 4291
1 3 0 1 -1 -1 9 0 20 4.000 1 0.0000 7949 3942 22 22 7949 3942 7949 3920
1 3 0 1 -1 -1 9 0 20 4.000 1 0.0000 8039 6585 22 22 8039 6585 8039 6563
1 3 0 1 -1 -1 9 0 20 4.000 1 0.0000 7389 1520 22 22 7389 1520 7389 1498
1 3 0 1 -1 -1 9 0 20 4.000 1 0.0000 6930 2698 22 22 6930 2698 6930 2676
1 3 0 1 -1 -1 9 0 20 4.000 1 0.0000 6173 2384 22 22 6173 2384 6173 2362
1 3 0 1 -1 -1 9 0 20 4.000 1 0.0000 6768 5876 22 22 6768 5876 6768 5854
1 3 0 1 -1 -1 9 0 20 4.000 1 0.0000 8599 2266 22 22 8599 2266 8599 2244
1 3 0 1 -1 -1 9 0 20 4.000 1 0.0000 7312 6589 22 22 7312 6589 7312 6567
1 3 0 1 -1 -1 9 0 20 4.000 1 0.0000 6767 2804 22 22 6767 2804 6767 2782
1 3 0 1 -1 -1 9 0 20 4.000 1 0.0000 5902 1667 22 22 5902 1667 5902 1645
1 3 0 1 -1 -1 9 0 20 4.000 1 0.0000 6446 4117 22 22 6446 4117 6446 4095
1 3 0 1 -1 -1 9 0 20 4.000 1 0.0000 4633 4491 22 22 4633 4491 4633 4469
1 3 0 1 -1 -1 9 0 20 4.000 1 0.0000 3817 2897 22 22 3817 2897 3817 2875
1 3 0 1 -1 -1 9 0 20 4.000 1 0.0000 3889 4606 22 22 3889 4606 3889 4584
1 3 0 1 -1 -1 9 0 20 4.000 1 0.0000 5461 5525 22 22 5461 5525 5461 5503
1 3 0 1 -1 -1 9 0 20 4.000 1 0.0000 4635 2440 22 22 4635 2440 4635 2418
1 3 0 1 -1 -1 9 0 20 4.000 1 0.0000 4500 3387 22 22 4500 3387 4500 3365
1 3 0 1 -1 -1 9 0 20 4.000 1 0.0000 5804 4476 22 22 5804 4476 5804 4454
1 3 0 1 -1 -1 9 0 20 4.000 1 0.0000 5482 2181 22 22 5482 2181 5482 2159
1 3 0 1 -1 -1 9 0 20 4.000 1 0.0000 5649 5684 22 22 5649 5684 5649 5662
1 3 0 1 -1 -1 9 0 20 4.000 1 0.0000 6556 3615 22 22 6556 3615 6556 3593
1 3 0 1 -1 -1 9 0 20 4.000 1 0.0000 5793 2653 22 22 5793 2653 5793 2631
1 3 0 1 -1 -1 9 0 20 4.000 1 0.0000 5414 1967 22 22 5414 1967 5414 1945
1 3 0 1 -1 -1 9 0 20 4.000 1 0.0000 5968 4243 22 22 5968 4243 5968 4221
1 3 0 1 -1 -1 9 0 20 4.000 1 0.0000 5561 4947 22 22 5561 4947 5561 4925
1 3 0 1 -1 -1 9 0 20 4.000 1 0.0000 5722 4242 22 22 5722 4242 5722 4220
1 3 0 1 -1 -1 9 0 20 4.000 1 0.0000 5717 2495 22 22 5717 2495 5717 2473
1 3 0 1 -1 -1 9 0 20 4.000 1 0.0000 5123 4539 22 22 5123 4539 5123 4517
1 3 0 1 -1 -1 9 0 20 4.000 1 0.0000 7480 5549 22 22 7480 5549 7480 5527
1 3 0 1 -1 -1 9 0 20 4.000 1 0.0000 7784 2573 22 22 7784 2573 7784 2551
1 3 0 1 -1 -1 9 0 20 4.000 1 0.0000 7781 3658 22 22 7781 3658 7781 3636
1 3 0 1 -1 -1 9 0 20 4.000 1 0.0000 7936 2382 22 22 7936 2382 7936 2360
1 3 0 1 -1 -1 9 0 20 4.000 1 0.0000 6682 1776 22 22 6682 1776 6682 1754
1 3 0 1 -1 -1 9 0 20 4.000 1 0.0000 6368 6025 22 22 6368 6025 6368 6003
1 3 0 1 -1 -1 9 0 20 4.000 1 0.0000 5563 5185 22 22 5563 5185 5563 5163
1 3 0 1 -1 -1 9 0 20 4.000 1 0.0000 5708 2161 22 22 5708 2161 5708 2139
1 3 0 1 -1 -1 9 0 20 4.000 1 0.0000 6839 3211 22 22 6839 3211 6839 3189
1 3 0 1 -1 -1 9 0 20 4.000 1 0.0000 5669 3789 22 22 5669 3789 5669 3767
1 3 0 1 -1 -1 9 0 20 4.000 1 0.0000 4673 5224 22 22 4673 5224 4673 5202
1 3 0 1 -1 -1 9 0 20 4.000 1 0.0000 4827 2734 22 22 4827 2734 4827 2712
1 3 0 1 -1 -1 9 0 20 4.000 1 0.0000 4029 2748 22 22 4029 2748 4029 2726
1 3 0 1 -1 -1 9 0 20 4.000 1 0.0000 4711 2892 22 22 4711 2892 4711 2870
1 3 0 1 -1 -1 9 0 20 4.000 1 0.0000 4067 4351 22 22 4067 4351 4067 4329
1 3 0 1 -1 -1 9 0 20 4.000 1 0.0000 6674 3698 22 22 6674 3698 6674 3676
1 3 0 1 -1 -1 9 0 20 4.000 1 0.0000 6625 6486 22 22 6625 6486 6625 6464
1 3 0 1 -1 -1 9 0 20 4.000 1 0.0000 5179 6544 22 22 5179 6544 5179 6522
1 3 0 1 -1 -1 9 0 20 4.000 1 0.0000 6038 3858 22 22 6038 3858 6038 3836
1 3 0 1 -1 -1 9 0 20 4.000 1 0.0000 7075 1659 22 22 7075 1659 7075 1637
1 3 0 1 -1 -1 9 0 20 4.000 1 0.0000 7261 2478 22 22 7261 2478 7261 2456
1 3 0 1 -1 -1 9 0 20 4.000 1 0.0000 6865 2005 22 22 6865 2005 6865 1983
1 3 0 1 -1 -1 9 0 20 4.000 1 0.0000 6553 2039 22 22 6553 2039 6553 2017
1 3 0 1 -1 -1 9 0 20 4.000 1 0.0000 7075 1693 22 22 7075 1693 7075 1671
1 3 0 1 -1 -1 9 0 20 4.000 1 0.0000 6861 2086 22 22 6861 2086 6861 2064
1 3 0 1 -1 -1 9 0 20 4.000 1 0.0000 6871 2095 22 22 6871 2095 6871 2073
1 3 0 1 -1 -1 9 0 20 4.000 1 0.0000 7046 6294 22 22 7046 6294 7046 6272
1 3 0 1 -1 -1 9 0 20 4.000 1 0.0000 7435 6451 22 22 7435 6451 7435 6429
1 3 0 1 -1 -1 9 0 20 4.000 1 0.0000 6146 1953 22 22 6146 1953 6146 1931
1 3 0 1 -1 -1 9 0 20 4.000 1 0.0000 3702 2367 22 22 3702 2367 3702 2345
1 3 0 1 -1 -1 9 0 20 4.000 1 0.0000 5984 2698 22 22 5984 2698 5984 2676
1 3 0 1 -1 -1 9 0 20 4.000 1 0.0000 6826 2954 22 22 6826 2954 6826 2932
1 3 0 1 -1 -1 9 0 20 4.000 1 0.0000 5356 5058 22 22 5356 5058 5356 5036
1 3 0 1 -1 -1 9 0 20 4.000 1 0.0000 5247 5991 22 22 5247 5991 5247 5969
1 3 0 1 -1 -1 9 0 20 4.000 1 0.0000 6447 4305 22 22 6447 4305 6447 4283
1 3 0 1 -1 -1 9 0 20 4.000 1 0.0000 6036 4811 22 22 6036 4811 6036 4789
1 3 0 1 -1 -1 9 0 20 4.000 1 0.0000 4340 3505 22 22 4340 3505 4340 3483
1 3 0 1 -1 -1 9 0 20 4.000 1 0.0000 4652 3278 22 22 4652 3278 4652 3256
1 3 0 1 -1 -1 9 0 20 4.000 1 0.0000 4792 3195 22 22 4792 3195 4792 3173
1 3 0 1 -1 -1 9 0 20 4.000 1 0.0000 6594 6045 22 22 6594 6045 6594 6023
1 3 0 1 -1 -1 9 0 20 4.000 1 0.0000 6856 5772 22 22 6856 5772 6856 5750
1 3 0 1 -1 -1 9 0 20 4.000 1 0.0000 4324 2114 22 22 4324 2114 4324 2092
1 3 0 1 -1 -1 9 0 20 4.000 1 0.0000 3763 3483 22 22 3763 3483 3763 3461
1 3 0 1 -1 -1 9 0 20 4.000 1 0.0000 4158 2810 22 22 4158 2810 4158 2788
1 3 0 1 -1 -1 9 0 20 4.000 1 0.0000 4607 6225 22 22 4607 6225 4607 6203
1 3 0 1 -1 -1 9 0 20 4.000 1 0.0000 6114 2495 22 22 6114 2495 6114 2473
1 3 0 1 -1 -1 9 0 20 4.000 1 0.0000 3787 6413 22 22 3787 6413 3787 6391
1 3 0 1 -1 -1 9 0 20 4.000 1 0.0000 4948 6076 22 22 4948 6076 4948 6054
1 3 0 1 -1 -1 9 0 20 4.000 1 0.0000 4548 2109 22 22 4548 2109 4548 2087
1 3 0 1 -1 -1 9 0 20 4.000 1 0.0000 5510 5314 22 22 5510 5314 5510 5292
1 3 0 1 -1 -1 9 0 20 4.000 1 0.0000 4377 3746 22 22 4377 3746 4377 3724
1 3 0 1 -1 -1 9 0 20 4.000 1 0.0000 4269 3978 22 22 4269 3978 4269 3956
1 3 0 1 -1 -1 9 0 20 4.000 1 0.0000 6848 4577 22 22 6848 4577 6848 4555
1 3 0 1 -1 -1 9 0 20 4.000 1 0.0000 5741 5833 22 22 5741 5833 5741 5811
1 3 0 1 -1 -1 9 0 20 4.000 1 0.0000 4081 5899 22 22 4081 5899 4081 5877
1 3 0 1 -1 -1 9 0 20 4.000 1 0.0000 7716 5039 22 22 7716 5039 7716 5017
1 3 0 1 -1 -1 9 0 20 4.000 1 0.0000 7517 5151 22 22 7517 5151 7517 5129
1 3 0 1 -1 -1 9 0 20 4.000 1 0.0000 6560 3635 22 22 6560 3635 6560 3613
1 3 0 1 -1 -1 9 0 20 4.000 1 0.0000 3781 5947 22 22 3781 5947 3781 5925
1 3 0 1 -1 -1 9 0 20 4.000 1 0.0000 5984 4345 22 22 5984 4345 5984 4323
1 3 0 1 -1 -1 9 0 20 4.000 1 0.0000 7062 3279 22 22 7062 3279 7062 3257
1 3 0 1 -1 -1 9 0 20 4.000 1 0.0000 6290 5963 22 22 6290 5963 6290 5941
1 3 0 1 -1 -1 9 0 20 4.000 1 0.0000 6202 2246 22 22 6202 2246 6202 2224
1 3 0 1 -1 -1 9 0 20 4.000 1 0.0000 6777 5864 22 22 6777 5864 6777 5842
1 3 0 1 -1 -1 9 0 20 4.000 1 0.0000 3807 1450 22 22 3807 1450 3807 1428
1 3 0 1 -1 -1 9 0 20 4.000 1 0.0000 7366 5326 22 22 7366 5326 7366 5304
1 3 0 1 -1 -1 9 0 20 4.000 1 0.0000 6419 6466 22 22 6419 6466 6419 6444
1 3 0 1 -1 -1 9 0 20 4.000 1 0.0000 7270 3528 22 22 7270 3528 7270 3506
1 3 0 1 -1 -1 9 0 20 4.000 1 0.0000 7882 1773 22 22 7882 1773 7882 1751
1 3 0 1 -1 -1 9 0 20 4.000 1 0.0000 7631 4037 22 22 7631 4037 7631 4015
1 3 0 1 -1 -1 9 0 20 4.000 1 0.0000 8325 2369 22 22 8325 2369 8325 2347
1 3 0 1 -1 -1 9 0 20 4.000 1 0.0000 5312 2190 22 22 5312 2190 5312 2168
1 3 0 1 -1 -1 9 0 20 4.000 1 0.0000 4662 4106 22 22 4662 4106 4662 4084
1 3 0 1 -1 -1 9 0 20 4.000 1 0.0000 4285 1959 22 22 4285 1959 4285 1937
1 3 0 1 -1 -1 9 0 20 4.000 1 0.0000 4272 2087 22 22 4272 2087 4272 2065
1 3 0 1 -1 -1 9 0 20 4.000 1 0.0000 5813 2602 22 22 5813 2602 5813 2580
1 3 0 1 -1 -1 9 0 20 4.000 1 0.0000 6073 2789 22 22 6073 2789 6073 2767
1 3 0 1 -1 -1 9 0 20 4.000 1 0.0000 6186 1874 22 22 6186 1874 6186 1852
1 3 0 1 -1 -1 9 0 20 4.000 1 0.0000 5763 4726 22 22 5763 4726 5763 4704
1 3 0 1 -1 -1 9 0 20 4.000 1 0.0000 3758 3043 22 22 3758 3043 3758 3021
1 3 0 1 -1 -1 9 0 20 4.000 1 0.0000 7500 2619 22 22 7500 2619 7500 2597
1 3 0 1 -1 -1 9 0 20 4.000 1 0.0000 7226 3678 22 22 7226 3678 7226 3656
1 3 0 1 -1 -1 9 0 20 4.000 1 0.0000 7434 6128 22 22 7434 6128 7434 6106
1 3 0 1 -1 -1 9 0 20 4.000 1 0.0000 3684 5927 22 22 3684 5927 3684 5905
1 3 0 1 -1 -1 9 0 20 4.000 1 0.0000 6797 1583 22 22 6797 1583 6797 1561
1 3 0 1 -1 -1 9 0 20 4.000 1 0.0000 5234 4145 22 22 5234 4145 5234 4123
1 3 0 1 -1 -1 9 0 20 4.000 1 0.0000 7328 5577 22 22 7328 5577 7328 5555
1 3 0 1 -1 -1 9 0 20 4.000 1 0.0000 7769 3175 22 22 7769 3175 7769 3153
1 3 0 1 -1 -1 9 0 20 4.000 1 0.0000 5288 2249 22 22 5288 2249 5288 2227
1 3 0 1 -1 -1 9 0 20 4.000 1 0.0000 5299 2452 22 22 5299 2452 5299 2430
1 3 0 1 -1 -1 9 0 20 4.000 1 0.0000 4249 5529 22 22 4249 5529 4249 5507
1 3 0 1 -1 -1 9 0 20 4.000 1 0.0000 7089 1679 22 22 7089 1679 7089 1657
1 3 0 1 -1 -1 9 0 20 4.000 1 0.0000 7068 1676 22 22 7068 1676 7068 1654
1 3 0 1 -1 -1 9 0 20 4.000 1 0.0000 7218 2423 22 22 7218 2423 7218 2401
1 3 0 1 -1 -1 9 0 20 4.000 1 0.0000 6679 2732 22 22 6679 2732 6679 2710
1 3 0 1 -1 -1 9 0 20 4.000 1 0.0000 6678 3933 22 22 6678 3933 6678 3911
1 3 0 1 -1 -1 9 0 20 4.000 1 0.0000 7100 1651 22 22 7100 1651 7100 1629
1 3 0 1 -1 -1 9 0 20 4.000 1 0.0000 7075 1691 22 22 7075 1691 7075 1669
1 3 0 1 -1 -1 9 0 20 4.000 1 0.0000 7467 1928 22 22 7467 1928 7467 1906
1 3 0 1 -1 -1 9 0 20 4.000 1 0.0000 5718 4009 22 22 5718 4009 5718 3987
1 3 0 1 -1 -1 9 0 20 4.000 1 0.0000 7716 5358 22 22 7716 5358 7716 5336
1 3 0 1 -1 -1 9 0 20 4.000 1 0.0000 7497 4983 22 22 7497 4983 7497 4961
1 3 0 1 -1 -1 9 0 20 4.000 1 0.0000 6844 5048 22 22 6844 5048 6844 5026
1 3 0 1 -1 -1 9 0 20 4.000 1 0.0000 7637 2186 22 22 7637 2186 7637 2164
1 3 0 1 -1 -1 9 0 20 4.000 1 0.0000 7668 2811 22 22 7668 2811 7668 2789
1 3 0 1 -1 -1 9 0 20 4.000 1 0.0000 7486 5979 22 22 7486 5979 7486 5957
1 3 0 1 -1 -1 9 0 20 4.000 1 0.0000 6570 4020 22 22 6570 4020 6570 3998
1 3 0 1 -1 -1 9 0 20 4.000 1 0.0000 7183 4773 22 22 7183 4773 7183 4751
1 3 0 1 -1 -1 9 0 20 4.000 1 0.0000 5993 1801 22 22 5993 1801 5993 1779
-6
1 3 0 2 8 11 40 -1 20 0.000 1 0.0000 4665 2433 770 770 4665 2433 5435 2433
1 3 0 2 20 27 40 -1 20 0.000 1 0.0000 8482 4482 770 770 8482 4482 9252 4482
2 1 2 1 -1 -1 10 0 -1 4.000 0 1 0 0 0 2
	 2004 6522 10327 6522
2 1 0 2 -1 -1 10 0 -1 0.000 0 0 0 0 0 2
	 2004 6522 2109 6522
2 1 0 2 -1 -1 10 0 -1 0.000 0 0 0 0 0 2
	 10327 6522 10222 6522
2 1 2 1 -1 -1 10 0 -1 4.000 0 1 0 0 0 2
	 2004 5690 10327 5690
2 1 0 2 -1 -1 10 0 -1 0.000 0 0 0 0 0 2
	 2004 5690 2109 5690
2 1 0 2 -1 -1 10 0 -1 0.000 0 0 0 0 0 2
	 10327 5690 10222 5690
2 1 2 1 -1 -1 10 0 -1 4.000 0 1 0 0 0 2
	 2004 4858 10327 4858
2 1 0 2 -1 -1 10 0 -1 0.000 0 0 0 0 0 2
	 2004 4858 2109 4858
2 1 0 2 -1 -1 10 0 -1 0.000 0 0 0 0 0 2
	 10327 4858 10222 4858
2 1 2 1 -1 -1 10 0 -1 4.000 0 1 0 0 0 2
	 2004 4025 10327 4025
2 1 0 2 -1 -1 10 0 -1 0.000 0 0 0 0 0 2
	 2004 4025 2109 4025
2 1 0 2 -1 -1 10 0 -1 0.000 0 0 0 0 0 2
	 10327 4025 10222 4025
2 1 2 1 -1 -1 10 0 -1 4.000 0 1 0 0 0 2
	 2004 3193 10327 3193
2 1 0 2 -1 -1 10 0 -1 0.000 0 0 0 0 0 2
	 2004 3193 2109 3193
2 1 0 2 -1 -1 10 0 -1 0.000 0 0 0 0 0 2
	 10327 3193 10222 3193
2 1 2 1 -1 -1 10 0 -1 4.000 0 1 0 0 0 2
	 2004 2361 10327 2361
2 1 0 2 -1 -1 10 0 -1 0.000 0 0 0 0 0 2
	 2004 2361 2109 2361
2 1 0 2 -1 -1 10 0 -1 0.000 0 0 0 0 0 2
	 10327 2361 10222 2361
2 1 2 1 -1 -1 10 0 -1 4.000 0 1 0 0 0 2
	 2004 1529 10327 1529
2 1 0 2 -1 -1 10 0 -1 0.000 0 0 0 0 0 2
	 2004 1529 2109 1529
2 1 0 2 -1 -1 10 0 -1 0.000 0 0 0 0 0 2
	 10327 1529 10222 1529
2 1 2 1 -1 -1 10 0 -1 4.000 0 1 0 0 0 2
	 2004 6640 2004 1411
2 1 0 2 -1 -1 10 0 -1 0.000 0 0 0 0 0 2
	 2004 6640 2004 6535
2 1 0 2 -1 -1 10 0 -1 0.000 0 0 0 0 0 2
	 2004 1411 2004 1516
2 1 2 1 -1 -1 10 0 -1 4.000 0 1 0 0 0 2
	 2836 6640 2836 1411
2 1 0 2 -1 -1 10 0 -1 0.000 0 0 0 0 0 2
	 2836 6640 2836 6535
2 1 0 2 -1 -1 10 0 -1 0.000 0 0 0 0 0 2
	 2836 1411 2836 1516
2 1 2 1 -1 -1 10 0 -1 4.000 0 1 0 0 0 2
	 3669 6640 3669 1411
2 1 0 2 -1 -1 10 0 -1 0.000 0 0 0 0 0 2
	 3669 6640 3669 6535
2 1 0 2 -1 -1 10 0 -1 0.000 0 0 0 0 0 2
	 3669 1411 3669 1516
2 1 2 1 -1 -1 10 0 -1 4.000 0 1 0 0 0 2
	 4501 6640 4501 1411
2 1 0 2 -1 -1 10 0 -1 0.000 0 0 0 0 0 2
	 4501 6640 4501 6535
2 1 0 2 -1 -1 10 0 -1 0.000 0 0 0 0 0 2
	 4501 1411 4501 1516
2 1 2 1 -1 -1 10 0 -1 4.000 0 1 0 0 0 2
	 5333 6640 5333 1411
2 1 0 2 -1 -1 10 0 -1 0.000 0 0 0 0 0 2
	 5333 6640 5333 6535
2 1 0 2 -1 -1 10 0 -1 0.000 0 0 0 0 0 2
	 5333 1411 5333 1516
2 1 2 1 -1 -1 10 0 -1 4.000 0 1 0 0 0 2
	 6165 6640 6165 1411
2 1 0 2 -1 -1 10 0 -1 0.000 0 0 0 0 0 2
	 6165 6640 6165 6535
2 1 0 2 -1 -1 10 0 -1 0.000 0 0 0 0 0 2
	 6165 1411 6165 1516
2 1 2 1 -1 -1 10 0 -1 4.000 0 1 0 0 0 2
	 6998 6640 6998 1411
2 1 0 2 -1 -1 10 0 -1 0.000 0 0 0 0 0 2
	 6998 6640 6998 6535
2 1 0 2 -1 -1 10 0 -1 0.000 0 0 0 0 0 2
	 6998 1411 6998 1516
2 1 2 1 -1 -1 10 0 -1 4.000 0 1 0 0 0 2
	 7830 6640 7830 1411
2 1 0 2 -1 -1 10 0 -1 0.000 0 0 0 0 0 2
	 7830 6640 7830 6535
2 1 0 2 -1 -1 10 0 -1 0.000 0 0 0 0 0 2
	 7830 1411 7830 1516
2 1 2 1 -1 -1 10 0 -1 4.000 0 1 0 0 0 2
	 8662 6640 8662 1411
2 1 0 2 -1 -1 10 0 -1 0.000 0 0 0 0 0 2
	 8662 6640 8662 6535
2 1 0 2 -1 -1 10 0 -1 0.000 0 0 0 0 0 2
	 8662 1411 8662 1516
2 1 2 1 -1 -1 10 0 -1 4.000 0 1 0 0 0 3
	 9495 6640 9495 1516 9495 1411
2 1 0 2 -1 -1 10 0 -1 0.000 0 0 0 0 0 2
	 9495 6640 9495 6535
2 1 0 2 -1 -1 10 0 -1 0.000 0 0 0 0 0 2
	 9495 1411 9495 1516
2 1 2 1 -1 -1 10 0 -1 4.000 0 1 0 0 0 2
	 10327 6640 10327 1411
2 1 0 2 -1 -1 10 0 -1 0.000 0 0 0 0 0 2
	 10327 6640 10327 6535
2 1 0 2 -1 -1 10 0 -1 0.000 0 0 0 0 0 2
	 10327 1411 10327 1516
2 1 0 2 -1 -1 10 0 -1 0.000 0 0 0 0 0 5
	 2004 1411 2004 6640 10327 6640 10327 1411 2004 1411
# End plot #1
2 1 0 2 -1 -1 10 0 -1 0.000 0 0 0 0 0 5
	 2004 1411 2004 6640 10327 6640 10327 1411 2004 1411
2 2 0 0 32 32 50 -1 20 0.000 0 0 -1 0 0 5
	 2832 1402 9482 1402 9482 6642 2832 6642 2832 1402
4 2 -1 0 -1 0 14 0.0000 4 165 195 1899 6609 -3\001
4 2 -1 0 -1 0 14 0.0000 4 165 195 1899 5777 -2\001
4 2 -1 0 -1 0 14 0.0000 4 165 195 1899 4945 -1\001
4 2 -1 0 -1 0 14 0.0000 4 165 180 1899 4112  0\001
4 2 -1 0 -1 0 14 0.0000 4 165 180 1899 3280  1\001
4 2 -1 0 -1 0 14 0.0000 4 165 180 1899 2448  2\001
4 2 -1 0 -1 0 14 0.0000 4 165 180 1899 1616  3\001
4 1 -1 0 -1 0 14 0.0000 4 165 195 2004 6902 -5\001
4 1 -1 0 -1 0 14 0.0000 4 165 195 2836 6902 -4\001
4 1 -1 0 -1 0 14 0.0000 4 165 195 3669 6902 -3\001
4 1 -1 0 -1 0 14 0.0000 4 165 195 4501 6902 -2\001
4 1 -1 0 -1 0 14 0.0000 4 165 195 5333 6902 -1\001
4 1 -1 0 -1 0 14 0.0000 4 165 180 6165 6902  0\001
4 1 -1 0 -1 0 14 0.0000 4 165 180 6998 6902  1\001
4 1 -1 0 -1 0 14 0.0000 4 165 180 7830 6902  2\001
4 1 -1 0 -1 0 14 0.0000 4 165 180 8662 6902  3\001
4 1 -1 0 -1 0 14 0.0000 4 165 180 9495 6902  4\001
4 1 -1 0 -1 0 14 0.0000 4 165 180 10327 6902  5\001
4 1 -1 0 -1 0 14 0.0000 4 150 120 6165 7164 y\001
4 1 -1 0 -1 32 14 1.5711 4 210 120 1539 4026 f\001
